<svg xmlns="http://www.w3.org/2000/svg" width="24" height="24" viewBox="0 0 24 24">
  <g fill="none" fill-rule="evenodd">
    <rect width="24" height="24" fill="#FFF" fill-opacity=".01"/>
    <path fill="#758A9A" fill-rule="nonzero" d="M11.9893617,11.0053191 C11.4414894,11.0053191 10.9893617,10.5585106 10.9893617,10.0053191 L8.99468085,10.0053191 C8.99468085,11.3031915 9.82978723,12.3989362 10.9893617,12.8138298 L10.9893617,13.9946809 L12.9840426,13.9946809 L12.9840426,12.8138298 C14.143617,12.3989362 14.9787234,11.3031915 14.9787234,10.0053191 C14.9787234,8.35638298 13.6382979,7.0106383 11.9840426,7.0106383 C11.4361702,7.0106383 10.9840426,6.56382979 10.9840426,6.0106383 C10.9840426,5.46276596 11.4308511,5.0106383 11.9840426,5.0106383 C12.5319149,5.0106383 12.9840426,5.45744681 12.9840426,6.0106383 L14.9787234,6.0106383 C14.9787234,4.71276596 14.143617,3.61702128 12.9840426,3.20212766 L12.9840426,2.02659574 L10.9893617,2.02659574 L10.9893617,3.20744681 C9.82978723,3.62234043 8.99468085,4.71808511 8.99468085,6.01595745 C8.99468085,7.66489362 10.3351064,9.0106383 11.9840426,9.0106383 C12.5319149,9.0106383 12.9840426,9.45744681 12.9840426,10.0106383 C12.9840426,10.5638298 12.5425532,11.0053191 11.9893617,11.0053191 Z"/>
    <path fill="#758A9A" fill-rule="nonzero" d="M19.9734043,16.8031915 L19.9734043,6.01595745 L15.9946809,6.01595745 L15.9946809,8.0106383 L17.9787234,8.0106383 L17.9787234,15.9893617 L6.0212766,15.9893617 L6.0212766,8.0106383 L7.97340426,8.0106383 L7.97340426,6.01595745 L4.02659574,6.01595745 L4.02659574,16.8031915 L2.02659574,21.9734043 L21.9734043,21.9734043 L19.9734043,16.8031915 Z M4.93617021,19.9787234 L5.70744681,17.9840426 L18.2925532,17.9840426 L19.0638298,19.9787234 L4.93617021,19.9787234 Z"/>
  </g>
</svg>
